module gitlab.com/vl4deee11/ipx/log-x-inspector

go 1.17

require (
	github.com/google/certificate-transparency-go v1.1.2
	github.com/kelseyhightower/envconfig v1.4.0
	gitlab.com/vl4deee11/ipx/lib v0.0.0-00010101000000-000000000000
)

require (
	github.com/google/uuid v1.3.0 // indirect
	github.com/json-iterator/go v1.1.12 // indirect
	github.com/klauspost/compress v1.15.9 // indirect
	github.com/modern-go/reflect2 v1.0.2 // indirect
	github.com/pierrec/lz4/v4 v4.1.15 // indirect
	github.com/prometheus/common v0.32.1 // indirect
	github.com/prometheus/procfs v0.7.3 // indirect
	github.com/segmentio/kafka-go v0.4.38 // indirect
	golang.org/x/crypto v0.0.0-20220622213112-05595931fe9d // indirect
	golang.org/x/net v0.0.0-20220706163947-c90051bbdb60 // indirect
	golang.org/x/sys v0.0.0-20220520151302-bc2c85ada10a // indirect
	golang.org/x/text v0.3.7 // indirect
)

require (
	bitbucket.org/creachadair/shell v0.0.6 // indirect
	cloud.google.com/go v0.93.3 // indirect
	github.com/beorn7/perks v1.0.1 // indirect
	github.com/bgentry/speakeasy v0.1.0 // indirect
	github.com/census-instrumentation/opencensus-proto v0.3.0 // indirect
	github.com/cespare/xxhash v1.1.0 // indirect
	github.com/cespare/xxhash/v2 v2.1.2 // indirect
	github.com/cncf/udpa/go v0.0.0-20201120205902-5459f2c99403 // indirect
	github.com/cncf/xds/go v0.0.0-20210312221358-fbca930ec8ed // indirect
	github.com/coreos/go-semver v0.3.0 // indirect
	github.com/coreos/go-systemd/v22 v22.3.2 // indirect
	github.com/cpuguy83/go-md2man/v2 v2.0.0 // indirect
	github.com/dgryski/go-rendezvous v0.0.0-20200823014737-9f7001d12a5f // indirect
	github.com/dustin/go-humanize v1.0.0 // indirect
	github.com/envoyproxy/go-control-plane v0.9.9-0.20210512163311-63b5d3c536b0 // indirect
	github.com/envoyproxy/protoc-gen-validate v0.3.0-java // indirect
	github.com/form3tech-oss/jwt-go v3.2.3+incompatible // indirect
	github.com/fullstorydev/grpcurl v1.8.2 // indirect
	github.com/go-redis/redis/v8 v8.11.4 // indirect
	github.com/gogo/protobuf v1.3.2 // indirect
	github.com/golang/glog v0.0.0-20160126235308-23def4e6c14b // indirect
	github.com/golang/groupcache v0.0.0-20210331224755-41bb18bfe9da // indirect
	github.com/golang/mock v1.6.0 // indirect
	github.com/golang/protobuf v1.5.2 // indirect
	github.com/google/btree v1.0.1 // indirect
	github.com/google/trillian v1.4.0 // indirect
	github.com/gorilla/websocket v1.4.2 // indirect
	github.com/grpc-ecosystem/go-grpc-middleware v1.3.0 // indirect
	github.com/grpc-ecosystem/go-grpc-prometheus v1.2.0 // indirect
	github.com/grpc-ecosystem/grpc-gateway v1.16.0 // indirect
	github.com/inconshreveable/mousetrap v1.0.0 // indirect
	github.com/jhump/protoreflect v1.9.0 // indirect
	github.com/jmoiron/sqlx v1.3.4
	github.com/jonboulle/clockwork v0.2.2 // indirect
	github.com/lib/pq v1.10.4 // indirect
	github.com/mattn/go-runewidth v0.0.9 // indirect
	github.com/matttproud/golang_protobuf_extensions v1.0.1 // indirect
	github.com/modern-go/concurrent v0.0.0-20180306012644-bacd9c7ef1dd // indirect
	github.com/olekukonko/tablewriter v0.0.5 // indirect
	github.com/prometheus/client_golang v1.12.2
	github.com/prometheus/client_model v0.2.0 // indirect
	github.com/russross/blackfriday/v2 v2.0.1 // indirect
	github.com/shurcooL/sanitized_anchor_name v1.0.0 // indirect
	github.com/sirupsen/logrus v1.7.0 // indirect
	github.com/soheilhy/cmux v0.1.5 // indirect
	github.com/spf13/cobra v1.1.3 // indirect
	github.com/spf13/pflag v1.0.5 // indirect
	github.com/tmc/grpc-websocket-proxy v0.0.0-20201229170055-e5319fda7802 // indirect
	github.com/urfave/cli v1.22.4 // indirect
	github.com/xiang90/probing v0.0.0-20190116061207-43a291ad63a2 // indirect
	go.etcd.io/bbolt v1.3.6 // indirect
	go.etcd.io/etcd/api/v3 v3.5.0 // indirect
	go.etcd.io/etcd/client/pkg/v3 v3.5.0 // indirect
	go.etcd.io/etcd/client/v2 v2.305.0 // indirect
	go.etcd.io/etcd/client/v3 v3.5.0 // indirect
	go.etcd.io/etcd/etcdctl/v3 v3.5.0 // indirect
	go.etcd.io/etcd/etcdutl/v3 v3.5.0 // indirect
	go.etcd.io/etcd/pkg/v3 v3.5.0 // indirect
	go.etcd.io/etcd/raft/v3 v3.5.0 // indirect
	go.etcd.io/etcd/server/v3 v3.5.0 // indirect
	go.etcd.io/etcd/tests/v3 v3.5.0 // indirect
	go.etcd.io/etcd/v3 v3.5.0 // indirect
	go.opentelemetry.io/contrib v0.20.0 // indirect
	go.opentelemetry.io/contrib/instrumentation/google.golang.org/grpc/otelgrpc v0.20.0 // indirect
	go.opentelemetry.io/otel v0.20.0 // indirect
	go.opentelemetry.io/otel/exporters/otlp v0.20.0 // indirect
	go.opentelemetry.io/otel/metric v0.20.0 // indirect
	go.opentelemetry.io/otel/sdk v0.20.0 // indirect
	go.opentelemetry.io/otel/sdk/export/metric v0.20.0 // indirect
	go.opentelemetry.io/otel/sdk/metric v0.20.0 // indirect
	go.opentelemetry.io/otel/trace v0.20.0 // indirect
	go.opentelemetry.io/proto/otlp v0.7.0 // indirect
	go.uber.org/atomic v1.7.0 // indirect
	go.uber.org/multierr v1.6.0 // indirect
	go.uber.org/zap v1.17.0 // indirect
	golang.org/x/mod v0.4.2 // indirect
	golang.org/x/oauth2 v0.0.0-20210805134026-6f1e6394065a // indirect
	golang.org/x/time v0.0.0-20210220033141-f8bda1e9f3ba // indirect
	golang.org/x/tools v0.1.5 // indirect
	golang.org/x/xerrors v0.0.0-20200804184101-5ec99f83aff1 // indirect
	google.golang.org/appengine v1.6.7 // indirect
	google.golang.org/genproto v0.0.0-20210821163610-241b8fcbd6c8 // indirect
	google.golang.org/grpc v1.40.0 // indirect
	google.golang.org/protobuf v1.27.1 // indirect
	gopkg.in/cheggaaa/pb.v1 v1.0.28 // indirect
	gopkg.in/natefinch/lumberjack.v2 v2.0.0 // indirect
	gopkg.in/yaml.v2 v2.4.0 // indirect
	sigs.k8s.io/yaml v1.2.0 // indirect
)

replace gitlab.com/vl4deee11/ipx/lib => ../lib
