module gitlab.com/vl4deee11/ipx/lib

go 1.17

require (
	github.com/ClickHouse/clickhouse-go v1.5.2
	github.com/go-redis/redis/v8 v8.11.4
	github.com/jmoiron/sqlx v1.3.4
	github.com/lib/pq v1.10.4
	github.com/stretchr/testify v1.8.0
	github.com/timtadh/lexmachine v0.2.2
)

require (
	github.com/beorn7/perks v1.0.1 // indirect
	github.com/cespare/xxhash/v2 v2.1.2 // indirect
	github.com/cloudflare/golz4 v0.0.0-20150217214814-ef862a3cdc58 // indirect
	github.com/davecgh/go-spew v1.1.1 // indirect
	github.com/dgryski/go-rendezvous v0.0.0-20200823014737-9f7001d12a5f // indirect
	github.com/golang/protobuf v1.5.2 // indirect
	github.com/klauspost/compress v1.15.9 // indirect
	github.com/matttproud/golang_protobuf_extensions v1.0.1 // indirect
	github.com/pierrec/lz4/v4 v4.1.15 // indirect
	github.com/pmezard/go-difflib v1.0.0 // indirect
	github.com/prometheus/client_model v0.2.0 // indirect
	github.com/prometheus/common v0.32.1 // indirect
	github.com/prometheus/procfs v0.7.3 // indirect
	golang.org/x/sys v0.0.0-20220520151302-bc2c85ada10a // indirect
	google.golang.org/protobuf v1.26.0 // indirect
	gopkg.in/yaml.v3 v3.0.1 // indirect
)

require (
	github.com/google/uuid v1.3.0
	github.com/prometheus/client_golang v1.12.2
	github.com/segmentio/kafka-go v0.4.38
	github.com/timtadh/data-structures v0.5.3 // indirect
	golang.org/x/net v0.0.0-20220706163947-c90051bbdb60
)
